PING 10.0.0.5:10000: 96 data bytes
96 byte(s) from /10.0.0.5:10000 seq=1 rtt=43 ms
96 byte(s) from /10.0.0.5:10000 seq=2 rtt=48 ms
96 byte(s) from /10.0.0.5:10000 seq=3 rtt=47 ms
96 byte(s) from /10.0.0.5:10000 seq=4 rtt=46 ms
96 byte(s) from /10.0.0.5:10000 seq=5 rtt=46 ms
96 byte(s) from /10.0.0.5:10000 seq=6 rtt=46 ms
96 byte(s) from /10.0.0.5:10000 seq=7 rtt=47 ms
96 byte(s) from /10.0.0.5:10000 seq=8 rtt=46 ms
96 byte(s) from /10.0.0.5:10000 seq=9 rtt=46 ms
96 byte(s) from /10.0.0.5:10000 seq=10 rtt=47 ms
96 byte(s) from /10.0.0.5:10000 seq=11 rtt=48 ms
96 byte(s) from /10.0.0.5:10000 seq=12 rtt=47 ms
96 byte(s) from /10.0.0.5:10000 seq=13 rtt=48 ms
96 byte(s) from /10.0.0.5:10000 seq=14 rtt=46 ms
96 byte(s) from /10.0.0.5:10000 seq=15 rtt=48 ms
96 byte(s) from /10.0.0.5:10000 seq=16 rtt=47 ms
96 byte(s) from /10.0.0.5:10000 seq=17 rtt=48 ms
96 byte(s) from /10.0.0.5:10000 seq=18 rtt=44 ms
96 byte(s) from /10.0.0.5:10000 seq=19 rtt=45 ms
96 byte(s) from /10.0.0.5:10000 seq=20 rtt=48 ms
