PING 10.0.0.4:10000: 96 data bytes
96 byte(s) from /10.0.0.4:10000 seq=1 rtt=183 ms
96 byte(s) from /10.0.0.4:10000 seq=2 rtt=189 ms
96 byte(s) from /10.0.0.4:10000 seq=3 rtt=189 ms
96 byte(s) from /10.0.0.4:10000 seq=4 rtt=188 ms
96 byte(s) from /10.0.0.4:10000 seq=5 rtt=187 ms
96 byte(s) from /10.0.0.4:10000 seq=6 rtt=187 ms
96 byte(s) from /10.0.0.4:10000 seq=7 rtt=189 ms
96 byte(s) from /10.0.0.4:10000 seq=8 rtt=189 ms
96 byte(s) from /10.0.0.4:10000 seq=9 rtt=190 ms
96 byte(s) from /10.0.0.4:10000 seq=10 rtt=190 ms
96 byte(s) from /10.0.0.4:10000 seq=11 rtt=188 ms
96 byte(s) from /10.0.0.4:10000 seq=12 rtt=189 ms
96 byte(s) from /10.0.0.4:10000 seq=13 rtt=189 ms
96 byte(s) from /10.0.0.4:10000 seq=14 rtt=190 ms
96 byte(s) from /10.0.0.4:10000 seq=15 rtt=190 ms
96 byte(s) from /10.0.0.4:10000 seq=16 rtt=189 ms
96 byte(s) from /10.0.0.4:10000 seq=17 rtt=190 ms
96 byte(s) from /10.0.0.4:10000 seq=18 rtt=189 ms
96 byte(s) from /10.0.0.4:10000 seq=19 rtt=190 ms
96 byte(s) from /10.0.0.4:10000 seq=20 rtt=185 ms
